{
  "clients": {
    "Proton": {
      "version": "0.0.2",
      "platforms": {
        "mac": {
          "download": {
            "url": "https://gitlab.com/wuynng/protonclient/raw/master/mac-0_0_2.tar.gz",
            "md5": "b2f1600dce63f76e8f2617a78959cfeb",
            "type": "tar",
            "bin": "mac-0_0_2/proton"
          },
          "bin": "proton",
          "commands": {
            "sanity": {
              "args": ["version"],
              "output": ["Proton", "0.0.2"]
            }
          }
        },
        "win": {
          "download": {
            "url": "https://gitlab.com/wuynng/protonclient/raw/master/win-0_0_2.zip",
            "md5": "dcbfe77ce5a7fcf02c3140d573f24e61",
            "type": "zip",
            "bin": "win-0_0_2\\proton.exe"
          },
          "bin": "proton.exe",
          "commands": {
            "sanity": {
              "args": ["version"],
              "output": ["Proton", "0.0.2"]
            }
          }
        }
      }
    }
  }
}
